{
  "project_info": {
    "project_number": "786751099909",
    "firebase_url": "https://premium-enduser.firebaseio.com",
    "project_id": "premium-enduser",
    "storage_bucket": "premium-enduser.appspot.com"
  },
  "client": [
    {
      "client_info": {
        "mobilesdk_app_id": "1:786751099909:android:b7d441001ef0a6f6",
        "android_client_info": {
          "package_name": "mn.fullstream.central_lab"
        }
      },
      "oauth_client": [
        {
          "client_id": "786751099909-9v7pkv31lu01kgbmvom2lba8tllct4nt.apps.googleusercontent.com",
          "client_type": 3
        }
      ],
      "api_key": [
        {
          "current_key": "AIzaSyApsAVIZFOLOy2jMLWQljqG1aaI1IoUlRM"
        }
      ],
      "services": {
        "appinvite_service": {
          "other_platform_oauth_client": [
            {
              "client_id": "786751099909-9v7pkv31lu01kgbmvom2lba8tllct4nt.apps.googleusercontent.com",
              "client_type": 3
            },
            {
              "client_id": "786751099909-rl7lb9lfajkqbpab439sb5d8hovdti7l.apps.googleusercontent.com",
              "client_type": 2,
              "ios_info": {
                "bundle_id": "mn.premium.customer"
              }
            }
          ]
        }
      }
    },
    {
      "client_info": {
        "mobilesdk_app_id": "1:786751099909:android:e6052b18380dd941",
        "android_client_info": {
          "package_name": "mn.fullstream.premium_concrete"
        }
      },
      "oauth_client": [
        {
          "client_id": "786751099909-9v7pkv31lu01kgbmvom2lba8tllct4nt.apps.googleusercontent.com",
          "client_type": 3
        }
      ],
      "api_key": [
        {
          "current_key": "AIzaSyApsAVIZFOLOy2jMLWQljqG1aaI1IoUlRM"
        }
      ],
      "services": {
        "appinvite_service": {
          "other_platform_oauth_client": [
            {
              "client_id": "786751099909-9v7pkv31lu01kgbmvom2lba8tllct4nt.apps.googleusercontent.com",
              "client_type": 3
            },
            {
              "client_id": "786751099909-rl7lb9lfajkqbpab439sb5d8hovdti7l.apps.googleusercontent.com",
              "client_type": 2,
              "ios_info": {
                "bundle_id": "mn.premium.customer"
              }
            }
          ]
        }
      }
    },
    {
      "client_info": {
        "mobilesdk_app_id": "1:786751099909:android:3220113ed3918ce2",
        "android_client_info": {
          "package_name": "mn.fullstream.premium_hse"
        }
      },
      "oauth_client": [
        {
          "client_id": "786751099909-9v7pkv31lu01kgbmvom2lba8tllct4nt.apps.googleusercontent.com",
          "client_type": 3
        }
      ],
      "api_key": [
        {
          "current_key": "AIzaSyApsAVIZFOLOy2jMLWQljqG1aaI1IoUlRM"
        }
      ],
      "services": {
        "appinvite_service": {
          "other_platform_oauth_client": [
            {
              "client_id": "786751099909-9v7pkv31lu01kgbmvom2lba8tllct4nt.apps.googleusercontent.com",
              "client_type": 3
            },
            {
              "client_id": "786751099909-rl7lb9lfajkqbpab439sb5d8hovdti7l.apps.googleusercontent.com",
              "client_type": 2,
              "ios_info": {
                "bundle_id": "mn.premium.customer"
              }
            }
          ]
        }
      }
    },
    {
      "client_info": {
        "mobilesdk_app_id": "1:786751099909:android:803e98e81b2a4f2807b86c",
        "android_client_info": {
          "package_name": "mn.iotech.inspection"
        }
      },
      "oauth_client": [
        {
          "client_id": "786751099909-9v7pkv31lu01kgbmvom2lba8tllct4nt.apps.googleusercontent.com",
          "client_type": 3
        }
      ],
      "api_key": [
        {
          "current_key": "AIzaSyApsAVIZFOLOy2jMLWQljqG1aaI1IoUlRM"
        }
      ],
      "services": {
        "appinvite_service": {
          "other_platform_oauth_client": [
            {
              "client_id": "786751099909-9v7pkv31lu01kgbmvom2lba8tllct4nt.apps.googleusercontent.com",
              "client_type": 3
            },
            {
              "client_id": "786751099909-rl7lb9lfajkqbpab439sb5d8hovdti7l.apps.googleusercontent.com",
              "client_type": 2,
              "ios_info": {
                "bundle_id": "mn.premium.customer"
              }
            }
          ]
        }
      }
    },
    {
      "client_info": {
        "mobilesdk_app_id": "1:786751099909:android:2ceb911dcf49a91d",
        "android_client_info": {
          "package_name": "mn.ufe.premium_driver_safety"
        }
      },
      "oauth_client": [
        {
          "client_id": "786751099909-9v7pkv31lu01kgbmvom2lba8tllct4nt.apps.googleusercontent.com",
          "client_type": 3
        }
      ],
      "api_key": [
        {
          "current_key": "AIzaSyApsAVIZFOLOy2jMLWQljqG1aaI1IoUlRM"
        }
      ],
      "services": {
        "appinvite_service": {
          "other_platform_oauth_client": [
            {
              "client_id": "786751099909-9v7pkv31lu01kgbmvom2lba8tllct4nt.apps.googleusercontent.com",
              "client_type": 3
            },
            {
              "client_id": "786751099909-rl7lb9lfajkqbpab439sb5d8hovdti7l.apps.googleusercontent.com",
              "client_type": 2,
              "ios_info": {
                "bundle_id": "mn.premium.customer"
              }
            }
          ]
        }
      }
    }
  ],
  "configuration_version": "1"
}