{
  "project_info": {
    "project_number": "790539687965",
    "project_id": "central2test",
    "storage_bucket": "central2test.appspot.com"
  },
  "client": [
    {
      "client_info": {
        "mobilesdk_app_id": "1:790539687965:android:f681d861006ff54ba58ef4",
        "android_client_info": {
          "package_name": "mn.fullstream.premium_concrete"
        }
      },
      "oauth_client": [
        {
          "client_id": "790539687965-t5buerghppj7hvccm2sbq76kkfh23siq.apps.googleusercontent.com",
          "client_type": 3
        }
      ],
      "api_key": [
        {
          "current_key": "AIzaSyBKgZyyeOWEZvmyLKEfX3X3bwDYmejfJik"
        }
      ],
      "services": {
        "appinvite_service": {
          "other_platform_oauth_client": [
            {
              "client_id": "790539687965-t5buerghppj7hvccm2sbq76kkfh23siq.apps.googleusercontent.com",
              "client_type": 3
            }
          ]
        }
      }
    },
    {
      "client_info": {
        "mobilesdk_app_id": "1:790539687965:android:975cad86cc3ca5c9a58ef4",
        "android_client_info": {
          "package_name": "mn.fullstream.premium_hse"
        }
      },
      "oauth_client": [
        {
          "client_id": "790539687965-t5buerghppj7hvccm2sbq76kkfh23siq.apps.googleusercontent.com",
          "client_type": 3
        }
      ],
      "api_key": [
        {
          "current_key": "AIzaSyBKgZyyeOWEZvmyLKEfX3X3bwDYmejfJik"
        }
      ],
      "services": {
        "appinvite_service": {
          "other_platform_oauth_client": [
            {
              "client_id": "790539687965-t5buerghppj7hvccm2sbq76kkfh23siq.apps.googleusercontent.com",
              "client_type": 3
            }
          ]
        }
      }
    }
  ],
  "configuration_version": "1"
}